Introduction to tidyverse
…
## 'data.frame':    150 obs. of  5 variables:
##  $ Sepal.Length: num  5.1 4.9 4.7 4.6 5 5.4 4.6 5 4.4 4.9 ...
##  $ Sepal.Width : num  3.5 3 3.2 3.1 3.6 3.9 3.4 3.4 2.9 3.1 ...
##  $ Petal.Length: num  1.4 1.4 1.3 1.5 1.4 1.7 1.4 1.5 1.4 1.5 ...
##  $ Petal.Width : num  0.2 0.2 0.2 0.2 0.2 0.4 0.3 0.2 0.2 0.1 ...
##  $ Species     : Factor w/ 3 levels "setosa","versicolor",..: 1 1 1 1 1 1 1 1 1 1 ...

If you have used other programming language before, then I bet you have heard about data frame. In tidyverse world data frame or table is called tibble. You can conceptualize it as table with some extra information on the data type.

# create tibble format table
df <- tbl_df(iris) 
df

## # A tibble: 150 x 5
##    Sepal.Length Sepal.Width Petal.Length Petal.Width Species
##           <dbl>       <dbl>        <dbl>       <dbl> <fct>  
##  1          5.1         3.5          1.4         0.2 setosa 
##  2          4.9         3            1.4         0.2 setosa 
##  3          4.7         3.2          1.3         0.2 setosa 
##  4          4.6         3.1          1.5         0.2 setosa 
##  5          5           3.6          1.4         0.2 setosa 
##  6          5.4         3.9          1.7         0.4 setosa 
##  7          4.6         3.4          1.4         0.3 setosa 
##  8          5           3.4          1.5         0.2 setosa 
##  9          4.4         2.9          1.4         0.2 setosa 
## 10          4.9         3.1          1.5         0.1 setosa 
## # … with 140 more rows

If you check at the header of tibble, then you can see it contains information on the class of data contained within the column. For example, information in the Species column of Iris data is factor.

Now lets dive into dplr little more, and work on data wrangling part. Data cleaning or organizing is extremely essential for downstream analysis. Most of the data analyst spend most of their time in data cleaning, although, most of us hate to spend time on cleaning the messy data. Luckily, dplyr has quite intuitive functions to help you..

Let say if you want to filter the Iris dataset, where Species are versicolor. Then you can use a function filter.

# Filter rows with filter()
# here df is the object where we had store our tibble data
# yes, you need to use ==
filter(df, Species == "versicolor")

## # A tibble: 50 x 5
##    Sepal.Length Sepal.Width Petal.Length Petal.Width Species   
##           <dbl>       <dbl>        <dbl>       <dbl> <fct>     
##  1          7           3.2          4.7         1.4 versicolor
##  2          6.4         3.2          4.5         1.5 versicolor
##  3          6.9         3.1          4.9         1.5 versicolor
##  4          5.5         2.3          4           1.3 versicolor
##  5          6.5         2.8          4.6         1.5 versicolor
##  6          5.7         2.8          4.5         1.3 versicolor
##  7          6.3         3.3          4.7         1.6 versicolor
##  8          4.9         2.4          3.3         1   versicolor
##  9          6.6         2.9          4.6         1.3 versicolor
## 10          5.2         2.7          3.9         1.4 versicolor
## # … with 40 more rows

You can also filter dataset passing some conditional requirements. Here, let’s say, we want to select all flower data with petal length is greater than 2.

# Comparisons
filter(df, Petal.Length > 2)

## # A tibble: 100 x 5
##    Sepal.Length Sepal.Width Petal.Length Petal.Width Species   
##           <dbl>       <dbl>        <dbl>       <dbl> <fct>     
##  1          7           3.2          4.7         1.4 versicolor
##  2          6.4         3.2          4.5         1.5 versicolor
##  3          6.9         3.1          4.9         1.5 versicolor
##  4          5.5         2.3          4           1.3 versicolor
##  5          6.5         2.8          4.6         1.5 versicolor
##  6          5.7         2.8          4.5         1.3 versicolor
##  7          6.3         3.3          4.7         1.6 versicolor
##  8          4.9         2.4          3.3         1   versicolor
##  9          6.6         2.9          4.6         1.3 versicolor
## 10          5.2         2.7          3.9         1.4 versicolor
## # … with 90 more rows
…
Dataset is filtered based on both the criteria, and only the entries that matched the set conditions are displayed.

Now, rather than filtering data with the desired criteria, we can also arrange them in our desired order- by using arrange function.

# arrange by sepal length then petal width. Default is ascending order. 
arrange(df, Sepal.Length, Petal.Width)

## # A tibble: 150 x 5
##    Sepal.Length Sepal.Width Petal.Length Petal.Width Species
##           <dbl>       <dbl>        <dbl>       <dbl> <fct>  
##  1          4.3         3            1.1         0.1 setosa 
##  2          4.4         2.9          1.4         0.2 setosa 
##  3          4.4         3            1.3         0.2 setosa 
##  4          4.4         3.2          1.3         0.2 setosa 
##  5          4.5         2.3          1.3         0.3 setosa 
##  6          4.6         3.1          1.5         0.2 setosa 
##  7          4.6         3.6          1           0.2 setosa 
##  8          4.6         3.2          1.4         0.2 setosa 
##  9          4.6         3.4          1.4         0.3 setosa 
## 10          4.7         3.2          1.3         0.2 setosa 
## # … with 140 more rows

# allows to arrange in descending order. 
arrange(df, desc(Sepal.Length))

## # A tibble: 150 x 5
##    Sepal.Length Sepal.Width Petal.Length Petal.Width Species  
##           <dbl>       <dbl>        <dbl>       <dbl> <fct>    
##  1          7.9         3.8          6.4         2   virginica
##  2          7.7         3.8          6.7         2.2 virginica
##  3          7.7         2.6          6.9         2.3 virginica
##  4          7.7         2.8          6.7         2   virginica
##  5          7.7         3            6.1         2.3 virginica
##  6          7.6         3            6.6         2.1 virginica
##  7          7.4         2.8          6.1         1.9 virginica
##  8          7.3         2.9          6.3         1.8 virginica
##  9          7.2         3.6          6.1         2.5 virginica
## 10          7.2         3.2          6           1.8 virginica
## # … with 140 more rows

Unlike filter, if you want to take a subset of data, and study them separately then you can use select function to get a subset of the bigger data.

# from iris data, lets select only three columns - Species, Petal width and Petal length
select(df, Species, Petal.Width, Petal.Length)

## # A tibble: 150 x 3
##    Species Petal.Width Petal.Length
##    <fct>         <dbl>        <dbl>
##  1 setosa          0.2          1.4
##  2 setosa          0.2          1.4
##  3 setosa          0.2          1.3
##  4 setosa          0.2          1.5
##  5 setosa          0.2          1.4
##  6 setosa          0.4          1.7
##  7 setosa          0.3          1.4
##  8 setosa          0.2          1.5
##  9 setosa          0.2          1.4
## 10 setosa          0.1          1.5
## # … with 140 more rows

R is quiet flexible in handling data set. You can not only twist and turn the entries, but also add additional columns and rows. You can use mutate function to do that. Here log.Sepal.length is a name of the new column, and in this column we will be storing the log(Sepal.Length) values.

mutate(df, log.Sepal.length = log(Sepal.Length))

## # A tibble: 150 x 6
##    Sepal.Length Sepal.Width Petal.Length Petal.Width Species
##           <dbl>       <dbl>        <dbl>       <dbl> <fct>  
##  1          5.1         3.5          1.4         0.2 setosa 
##  2          4.9         3            1.4         0.2 setosa 
##  3          4.7         3.2          1.3         0.2 setosa 
##  4          4.6         3.1          1.5         0.2 setosa 
##  5          5           3.6          1.4         0.2 setosa 
##  6          5.4         3.9          1.7         0.4 setosa 
##  7          4.6         3.4          1.4         0.3 setosa 
##  8          5           3.4          1.5         0.2 setosa 
##  9          4.4         2.9          1.4         0.2 setosa 
## 10          4.9         3.1          1.5         0.1 setosa 
## # … with 140 more rows, and 1 more variable: log.Sepal.length <dbl>
…
